<svg xmlns="http://www.w3.org/2000/svg" xmlns:xlink="http://www.w3.org/1999/xlink" width="120.015" height="120.008" viewBox="0 0 120.015 120.008">
  <defs>
    <filter id="Path_27" x="57.464" y="24.867" width="40.955" height="44.195" filterUnits="userSpaceOnUse">
      <feOffset dy="3" input="SourceAlpha"/>
      <feGaussianBlur stdDeviation="3" result="blur"/>
      <feFlood flood-opacity="0.161"/>
      <feComposite operator="in" in2="blur"/>
      <feComposite in="SourceGraphic"/>
    </filter>
    <filter id="Path_28" x="21.812" y="24.867" width="76.586" height="76.568" filterUnits="userSpaceOnUse">
      <feOffset dy="3" input="SourceAlpha"/>
      <feGaussianBlur stdDeviation="3" result="blur-2"/>
      <feFlood flood-opacity="0.161"/>
      <feComposite operator="in" in2="blur-2"/>
      <feComposite in="SourceGraphic"/>
    </filter>
  </defs>
  <g id="Group_19" data-name="Group 19" transform="translate(-434 -305.996)">
    <g id="Group_17" data-name="Group 17" transform="translate(700 -211)">
      <g id="Group_14" data-name="Group 14" transform="translate(0 150)">
        <g id="Group_9" data-name="Group 9" transform="translate(0 150)">
          <g id="Bubble" transform="translate(-266 216.996)">
            <path id="Path_2" data-name="Path 2" d="M45.175-.3l5.369-.46,3.338-.13L58.965-1l8.015.122L75-.322c.372,0,.712.082,1.41.167.35.038,1.087.11,1.919.226,1.274.176,2.875.4,4.548.686A60.855,60.855,0,0,1,100.635,6.5a39.223,39.223,0,0,1,4.081,2.553,23.133,23.133,0,0,1,2.044,1.619,34.057,34.057,0,0,1,5.81,6.416c3.613,5.29,5.451,11.859,6.48,19.219.253,1.806.381,4.2.606,6.561.062.629.154,1.823.154,2.765l.205,5.337v6.8l-.08,10.635-.22,6.63c0,.845-.146,1.791-.21,2.927-.443,8.042-2.282,16.14-6.581,22.725A32.347,32.347,0,0,1,99.57,112.066a49.33,49.33,0,0,1-5.9,2.493c-.913.315-2.164.56-3.4.988a54,54,0,0,1-7.4,1.735c-1.292.252-2.751.43-4.547.673a25.647,25.647,0,0,1-3.6.352l-3.7.37L64.269,119H56.934l-6.312-.238-6.008-.46c-.246,0-.443-.076-1-.134-.429-.037-1.257-.129-2.21-.246-2.251-.27-4.8-.691-7.43-1.269-8.116-1.78-16.1-4.671-21.991-10.27A32.6,32.6,0,0,1,4.909,96.66,50.968,50.968,0,0,1,1.356,84.831c-.158-.8-.273-1.624-.421-2.839-.083-.677-.2-1.755-.361-2.9A29.556,29.556,0,0,1,.345,75L.25,74.076.152,71.3,0,64.9,0,45C0,34.629,2.553,24.466,8.425,16.322A31.2,31.2,0,0,1,13.4,10.909a26.212,26.212,0,0,1,2.125-1.664l.491-.335.662-.465a28.825,28.825,0,0,1,6.085-3.34A69.438,69.438,0,0,1,35.681,1.164C37.434.782,39.31.458,41.654.056A23.58,23.58,0,0,1,45.175-.3Z" transform="translate(0 1.004)" fill="#fff"/>
          </g>
        </g>
      </g>
    </g>
    <g transform="matrix(1, 0, 0, 1, 434, 306)" filter="url(#Path_27)">
      <path id="Path_27-2" data-name="Path 27" d="M33.569,5.89a9.778,9.778,0,0,0-13.829,0l-5.222,5.222a1.947,1.947,0,0,0,2.622,2.873l5.121-5.121a6.224,6.224,0,0,1,8.8,8.8l-.611.611,0,0L22.83,25.908a1.941,1.941,0,0,0,2.745,2.745l8.464-8.464a9.778,9.778,0,0,0,0-13.829Z" transform="translate(52.52 27.84)" fill="#e11921" fill-rule="evenodd"/>
    </g>
    <g transform="matrix(1, 0, 0, 1, 434, 306)" filter="url(#Path_28)">
      <path id="Path_28-2" data-name="Path 28" d="M5.893,6.36a9.779,9.779,0,0,0,0,13.829L18,32.3,5.874,44.431a9.779,9.779,0,0,0,0,13.829l.47.47a9.778,9.778,0,0,0,13.829,0L32.3,46.6l12.13,12.13a9.778,9.778,0,0,0,13.829,0l.47-.47a9.779,9.779,0,0,0,0-13.829L44.414,30.113a1.943,1.943,0,1,0-2.748,2.748l5.063,5.063,9.03,9.03a6.224,6.224,0,1,1-8.8,8.8L32.306,41.106,17.656,55.757a6.224,6.224,0,0,1-8.8-8.8L23.5,32.3,8.866,17.666a6.224,6.224,0,1,1,8.8-8.8L28.36,19.555l3.407,3.407a1.943,1.943,0,0,0,2.748-2.748L20.191,5.89a9.779,9.779,0,0,0-13.829,0Z" transform="translate(27.8 27.84)" fill="#e11921" fill-rule="evenodd"/>
    </g>
  </g>
</svg>
